<?xml version="1.0" encoding="utf-8"?>
<gpx creator="mapy.cz" version="1.1" xmlns="http://www.topografix.com/GPX/1/1" xmlns:xsi="http://www.w3.org/2001/XMLSchema-instance" xsi:schemaLocation="http://www.topografix.com/GPX/1/1 http://www.topografix.com/GPX/1/1/gpx.xsd">
<trk><name></name>
    <trkseg>
        <trkpt lat="48.7918388844" lon="13.9495870471"><name>WP 001</name></trkpt>
        <trkpt lat="48.791866377" lon="13.9496272802"><name>WP 002</name></trkpt>
        <trkpt lat="48.7919394672" lon="13.9497198164"><name>WP 003</name></trkpt>
        <trkpt lat="48.7920024991" lon="13.9497734606"><name>WP 004</name></trkpt>
        <trkpt lat="48.7924289703" lon="13.9501865208"><name>WP 005</name></trkpt>
        <trkpt lat="48.7929097563" lon="13.950612992"><name>WP 006</name></trkpt>
        <trkpt lat="48.7934086472" lon="13.9510515332"><name>WP 007</name></trkpt>
        <trkpt lat="48.7936359644" lon="13.9512781799"><name>WP 008</name></trkpt>
        <trkpt lat="48.7937264889" lon="13.9513854682"><name>WP 009</name></trkpt>
        <trkpt lat="48.7938907743" lon="13.951600045"><name>WP 010</name></trkpt>
        <trkpt lat="48.7940369546" lon="13.9518414438"><name>WP 011</name></trkpt>
        <trkpt lat="48.7941006571" lon="13.9519768953"><name>WP 012</name></trkpt>
        <trkpt lat="48.7941556424" lon="13.9520975947"><name>WP 013</name></trkpt>
        <trkpt lat="48.7942112982" lon="13.9522330463"><name>WP 014</name></trkpt>
        <trkpt lat="48.7942944467" lon="13.9525173604"><name>WP 015</name></trkpt>
        <trkpt lat="48.7943319976" lon="13.952666223"><name>WP 016</name></trkpt>
        <trkpt lat="48.7943601608" lon="13.9528284967"><name>WP 017</name></trkpt>
        <trkpt lat="48.7943990529" lon="13.953140974"><name>WP 018</name></trkpt>
        <trkpt lat="48.7944205105" lon="13.9534816146"><name>WP 019</name></trkpt>
        <trkpt lat="48.7944104522" lon="13.9543801546"><name>WP 020</name></trkpt>
        <trkpt lat="48.794413805" lon="13.9547610283"><name>WP 021</name></trkpt>
        <trkpt lat="48.7944245338" lon="13.9549514651"><name>WP 022</name></trkpt>
        <trkpt lat="48.7945137173" lon="13.955821842"><name>WP 023</name></trkpt>
        <trkpt lat="48.7945438921" lon="13.9561745524"><name>WP 024</name></trkpt>
        <trkpt lat="48.794548586" lon="13.9567324519"><name>WP 025</name></trkpt>
        <trkpt lat="48.794503659" lon="13.9576873183"><name>WP 026</name></trkpt>
        <trkpt lat="48.7944231927" lon="13.9587910473"><name>WP 027</name></trkpt>
        <trkpt lat="48.7944091111" lon="13.9591598511"><name>WP 028</name></trkpt>
        <trkpt lat="48.7944111228" lon="13.959390521"><name>WP 029</name></trkpt>
        <trkpt lat="48.7944305688" lon="13.9595541358"><name>WP 030</name></trkpt>
        <trkpt lat="48.794458732" lon="13.9597029984"><name>WP 031</name></trkpt>
        <trkpt lat="48.7944962829" lon="13.959851861"><name>WP 032</name></trkpt>
        <trkpt lat="48.7945331633" lon="13.9599470794"><name>WP 033</name></trkpt>
        <trkpt lat="48.7945787609" lon="13.9600409567"><name>WP 034</name></trkpt>
        <trkpt lat="48.7946337461" lon="13.9601348341"><name>WP 035</name></trkpt>
        <trkpt lat="48.7946974486" lon="13.9602287114"><name>WP 036</name></trkpt>
        <trkpt lat="48.794779256" lon="13.9603225887"><name>WP 037</name></trkpt>
        <trkpt lat="48.7948610634" lon="13.960416466"><name>WP 038</name></trkpt>
        <trkpt lat="48.795260042" lon="13.960762471"><name>WP 039</name></trkpt>
        <trkpt lat="48.7953324616" lon="13.9608563483"><name>WP 040</name></trkpt>
        <trkpt lat="48.7953881174" lon="13.9609770477"><name>WP 041</name></trkpt>
        <trkpt lat="48.7954249978" lon="13.9611259103"><name>WP 042</name></trkpt>
        <trkpt lat="48.7954538316" lon="13.961289525"><name>WP 043</name></trkpt>
        <trkpt lat="48.7954545021" lon="13.9613981545"><name>WP 044</name></trkpt>
        <trkpt lat="48.7954558432" lon="13.961520195"><name>WP 045</name></trkpt>
        <trkpt lat="48.795466572" lon="13.9617522061"><name>WP 046</name></trkpt>
        <trkpt lat="48.7954860181" lon="13.9619010687"><name>WP 047</name></trkpt>
        <trkpt lat="48.7954437733" lon="13.962174654"><name>WP 048</name></trkpt>
        <trkpt lat="48.7954089046" lon="13.9622980356"><name>WP 049</name></trkpt>
        <trkpt lat="48.795382753" lon="13.9624348283"><name>WP 050</name></trkpt>
        <trkpt lat="48.7953042984" lon="13.9626950026"><name>WP 051</name></trkpt>
        <trkpt lat="48.7952077389" lon="13.9629685879"><name>WP 052</name></trkpt>
        <trkpt lat="48.7950930744" lon="13.9632301033"><name>WP 053</name></trkpt>
        <trkpt lat="48.79497841" lon="13.9634500444"><name>WP 054</name></trkpt>
        <trkpt lat="48.7948007137" lon="13.963739723"><name>WP 055</name></trkpt>
        <trkpt lat="48.7947390229" lon="13.9638228714"><name>WP 056</name></trkpt>
        <trkpt lat="48.7946585566" lon="13.9639060199"><name>WP 057</name></trkpt>
        <trkpt lat="48.7945780903" lon="13.9639757574"><name>WP 058</name></trkpt>
        <trkpt lat="48.7942743301" lon="13.9641863108"><name>WP 059</name></trkpt>
        <trkpt lat="48.7940597534" lon="13.964368701"><name>WP 060</name></trkpt>
        <trkpt lat="48.7935420871" lon="13.9647871256"><name>WP 061</name></trkpt>
        <trkpt lat="48.7932108343" lon="13.9650124311"><name>WP 062</name></trkpt>
        <trkpt lat="48.7927367538" lon="13.965267241"><name>WP 063</name></trkpt>
        <trkpt lat="48.7921714783" lon="13.9654684067"><name>WP 064</name></trkpt>
        <trkpt lat="48.7918308377" lon="13.9655984938"><name>WP 065</name></trkpt>
        <trkpt lat="48.7916336954" lon="13.9656977355"><name>WP 066</name></trkpt>
        <trkpt lat="48.7913835794" lon="13.9658935368"><name>WP 067</name></trkpt>
        <trkpt lat="48.7911254168" lon="13.9661577344"><name>WP 068</name></trkpt>
        <trkpt lat="48.7910630554" lon="13.9662274718"><name>WP 069</name></trkpt>
        <trkpt lat="48.791000694" lon="13.9663092792"><name>WP 070</name></trkpt>
        <trkpt lat="48.7905467302" lon="13.9668497443"><name>WP 071</name></trkpt>
        <trkpt lat="48.7900840491" lon="13.9674049616"><name>WP 072</name></trkpt>
        <trkpt lat="48.7896569073" lon="13.9679709077"><name>WP 073</name></trkpt>
        <trkpt lat="48.7892572582" lon="13.9685516059"><name>WP 074</name></trkpt>
        <trkpt lat="48.7888844311" lon="13.9690893888"><name>WP 075</name></trkpt>
        <trkpt lat="48.7884760648" lon="13.9696700871"><name>WP 076</name></trkpt>
        <trkpt lat="48.7883513421" lon="13.9698632061"><name>WP 077</name></trkpt>
        <trkpt lat="48.7881749868" lon="13.9701931179"><name>WP 078</name></trkpt>
        <trkpt lat="48.7881307304" lon="13.9702896774"><name>WP 079</name></trkpt>
        <trkpt lat="48.787785396" lon="13.9709226787"><name>WP 080</name></trkpt>
        <trkpt lat="48.7876794487" lon="13.9711426198"><name>WP 081</name></trkpt>
        <trkpt lat="48.7873803824" lon="13.9718976617"><name>WP 082</name></trkpt>
        <trkpt lat="48.7871074677" lon="13.9726111293"><name>WP 083</name></trkpt>
        <trkpt lat="48.7869136781" lon="13.9730510116"><name>WP 084</name></trkpt>
        <trkpt lat="48.7868607044" lon="13.9731743932"><name>WP 085</name></trkpt>
        <trkpt lat="48.7867728621" lon="13.9733809233"><name>WP 086</name></trkpt>
        <trkpt lat="48.7864912301" lon="13.9741359651"><name>WP 087</name></trkpt>
        <trkpt lat="48.7864563614" lon="13.9742445946"><name>WP 088</name></trkpt>
        <trkpt lat="48.7863772362" lon="13.9744511247"><name>WP 089</name></trkpt>
        <trkpt lat="48.7861311436" lon="13.975109607"><name>WP 090</name></trkpt>
        <trkpt lat="48.7858139724" lon="13.9758646488"><name>WP 091</name></trkpt>
        <trkpt lat="48.7855323404" lon="13.9765378833"><name>WP 092</name></trkpt>
        <trkpt lat="48.7854793668" lon="13.9766478539"><name>WP 093</name></trkpt>
        <trkpt lat="48.785302341" lon="13.9769643545"><name>WP 094</name></trkpt>
        <trkpt lat="48.7849556655" lon="13.9774753153"><name>WP 095</name></trkpt>
        <trkpt lat="48.7847424299" lon="13.9777247608"><name>WP 096</name></trkpt>
        <trkpt lat="48.7846083194" lon="13.9778494835"><name>WP 097</name></trkpt>
        <trkpt lat="48.784519136" lon="13.9779192209"><name>WP 098</name></trkpt>
        <trkpt lat="48.7840269506" lon="13.9782558382"><name>WP 099</name></trkpt>
        <trkpt lat="48.7838123739" lon="13.9783966541"><name>WP 100</name></trkpt>
        <trkpt lat="48.7837319076" lon="13.9784663916"><name>WP 101</name></trkpt>
        <trkpt lat="48.7836521119" lon="13.97854954"><name>WP 102</name></trkpt>
        <trkpt lat="48.7835897505" lon="13.9786326885"><name>WP 103</name></trkpt>
        <trkpt lat="48.7834838033" lon="13.9788392186"><name>WP 104</name></trkpt>
        <trkpt lat="48.7833959609" lon="13.9790859818"><name>WP 105</name></trkpt>
        <trkpt lat="48.7833698094" lon="13.9791946113"><name>WP 106</name></trkpt>
        <trkpt lat="48.7831538916" lon="13.980178982"><name>WP 107</name></trkpt>
        <trkpt lat="48.782954067" lon="13.9809863269"><name>WP 108</name></trkpt>
        <trkpt lat="48.7828145921" lon="13.9815348387"><name>WP 109</name></trkpt>
        <trkpt lat="48.7828997523" lon="13.9819814265"><name>WP 110</name></trkpt>
        <trkpt lat="48.7829373032" lon="13.9821437001"><name>WP 111</name></trkpt>
        <trkpt lat="48.7831156701" lon="13.9830113947"><name>WP 112</name></trkpt>
        <trkpt lat="48.7832008302" lon="13.9835143089"><name>WP 113</name></trkpt>
        <trkpt lat="48.7832289934" lon="13.9836215973"><name>WP 114</name></trkpt>
        <trkpt lat="48.7832571566" lon="13.9837302268"><name>WP 115</name></trkpt>
        <trkpt lat="48.7832846493" lon="13.9838388562"><name>WP 116</name></trkpt>
        <trkpt lat="48.7833128124" lon="13.9839474857"><name>WP 117</name></trkpt>
        <trkpt lat="48.7833409756" lon="13.9840695262"><name>WP 118</name></trkpt>
        <trkpt lat="48.7835723162" lon="13.9848138392"><name>WP 119</name></trkpt>
        <trkpt lat="48.7836091965" lon="13.9849211276"><name>WP 120</name></trkpt>
        <trkpt lat="48.7836641818" lon="13.9850015938"><name>WP 121</name></trkpt>
        <trkpt lat="48.7837191671" lon="13.9851102233"><name>WP 122</name></trkpt>
        <trkpt lat="48.7837379426" lon="13.9852456748"><name>WP 123</name></trkpt>
        <trkpt lat="48.7836641818" lon="13.9860235155"><name>WP 124</name></trkpt>
        <trkpt lat="48.7836648524" lon="13.986145556"><name>WP 125</name></trkpt>
        <trkpt lat="48.7836661935" lon="13.9862675965"><name>WP 126</name></trkpt>
        <trkpt lat="48.7837030739" lon="13.986403048"><name>WP 127</name></trkpt>
        <trkpt lat="48.7837131321" lon="13.9865250885"><name>WP 128</name></trkpt>
        <trkpt lat="48.7837138027" lon="13.9865800738"><name>WP 129</name></trkpt>
        <trkpt lat="48.7837057561" lon="13.9866887033"><name>WP 130</name></trkpt>
        <trkpt lat="48.7836802751" lon="13.986838907"><name>WP 131</name></trkpt>
        <trkpt lat="48.7836226076" lon="13.9874263108"><name>WP 132</name></trkpt>
        <trkpt lat="48.783557564" lon="13.9882028103"><name>WP 133</name></trkpt>
        <trkpt lat="48.7835414708" lon="13.9884348214"><name>WP 134</name></trkpt>
        <trkpt lat="48.7835334241" lon="13.988558203"><name>WP 135</name></trkpt>
        <trkpt lat="48.7835253775" lon="13.9886668324"><name>WP 136</name></trkpt>
        <trkpt lat="48.7835086137" lon="13.9887902141"><name>WP 137</name></trkpt>
        <trkpt lat="48.7834844738" lon="13.9891308546"><name>WP 138</name></trkpt>
        <trkpt lat="48.7834764272" lon="13.9892394841"><name>WP 139</name></trkpt>
        <trkpt lat="48.7834603339" lon="13.9894714952"><name>WP 140</name></trkpt>
        <trkpt lat="48.7834435701" lon="13.9895935357"><name>WP 141</name></trkpt>
        <trkpt lat="48.7833791971" lon="13.9904665947"><name>WP 142</name></trkpt>
        <trkpt lat="48.7833396345" lon="13.9910526574"><name>WP 143</name></trkpt>
        <trkpt lat="48.7833664566" lon="13.9910660684"><name>WP 144</name></trkpt>
        <trkpt lat="48.7834388763" lon="13.9911183715"><name>WP 145</name></trkpt>
        <trkpt lat="48.7833859026" lon="13.9912283421"><name>WP 146</name></trkpt>
        <trkpt lat="48.7833510339" lon="13.9913383126"><name>WP 147</name></trkpt>
        <trkpt lat="48.7833161652" lon="13.9914751053"><name>WP 148</name></trkpt>
        <trkpt lat="48.7832994014" lon="13.9915984869"><name>WP 149</name></trkpt>
        <trkpt lat="48.7832202762" lon="13.9928658307"><name>WP 150</name></trkpt>
        <trkpt lat="48.7831411511" lon="13.9941465855"><name>WP 151</name></trkpt>
        <trkpt lat="48.7830707431" lon="13.9953321218"><name>WP 152</name></trkpt>
        <trkpt lat="48.7829996645" lon="13.9964908361"><name>WP 153</name></trkpt>
        <trkpt lat="48.7829292566" lon="13.9977045357"><name>WP 154</name></trkpt>
        <trkpt lat="48.7828420848" lon="13.9990134537"><name>WP 155</name></trkpt>
        <trkpt lat="48.7827864289" lon="13.9998985827"><name>WP 156</name></trkpt>
        <trkpt lat="48.7827790529" lon="14.0000219643"><name>WP 157</name></trkpt>
        <trkpt lat="48.7827213854" lon="14.0006898344"><name>WP 158</name></trkpt>
        <trkpt lat="48.7826536596" lon="14.0011270344"><name>WP 159</name></trkpt>
        <trkpt lat="48.7826013565" lon="14.0013858676"><name>WP 160</name></trkpt>
        <trkpt lat="48.7825410068" lon="14.0016192198"><name>WP 161</name></trkpt>
        <trkpt lat="48.7824263424" lon="14.0019477904"><name>WP 162</name></trkpt>
        <trkpt lat="48.7820917368" lon="14.0027846396"><name>WP 163</name></trkpt>
        <trkpt lat="48.7817752361" lon="14.0035812557"><name>WP 164</name></trkpt>
        <trkpt lat="48.7814319134" lon="14.004444927"><name>WP 165</name></trkpt>
        <trkpt lat="48.781106025" lon="14.0052817762"><name>WP 166</name></trkpt>
        <trkpt lat="48.7807627022" lon="14.0061333776"><name>WP 167</name></trkpt>
        <trkpt lat="48.7804368138" lon="14.0069420636"><name>WP 168</name></trkpt>
        <trkpt lat="48.7802517414" lon="14.0073953569"><name>WP 169</name></trkpt>
        <trkpt lat="48.7801551819" lon="14.0076555312"><name>WP 170</name></trkpt>
        <trkpt lat="48.7801203132" lon="14.0077923238"><name>WP 171</name></trkpt>
        <trkpt lat="48.7799996138" lon="14.0084213018"><name>WP 172</name></trkpt>
        <trkpt lat="48.7798943371" lon="14.0087364614"><name>WP 173</name></trkpt>
        <trkpt lat="48.7797977775" lon="14.0089966357"><name>WP 174</name></trkpt>
        <trkpt lat="48.7797535211" lon="14.0090931952"><name>WP 175</name></trkpt>
        <trkpt lat="48.7794718891" lon="14.0098200738"><name>WP 176</name></trkpt>
        <trkpt lat="48.779207021" lon="14.0104101598"><name>WP 177</name></trkpt>
        <trkpt lat="48.7791446596" lon="14.0104798973"><name>WP 178</name></trkpt>
        <trkpt lat="48.7790729105" lon="14.0105362236"><name>WP 179</name></trkpt>
        <trkpt lat="48.7789475173" lon="14.0105657279"><name>WP 180</name></trkpt>
        <trkpt lat="48.7789461762" lon="14.0104423463"><name>WP 181</name></trkpt>
        <trkpt lat="48.7789274007" lon="14.0103203058"><name>WP 182</name></trkpt>
        <trkpt lat="48.7788992375" lon="14.0102130175"><name>WP 183</name></trkpt>
        <trkpt lat="48.7788717449" lon="14.0101312101"><name>WP 184</name></trkpt>
        <trkpt lat="48.7788187712" lon="14.0102277696"><name>WP 185</name></trkpt>
        <trkpt lat="48.7787745148" lon="14.0103243291"><name>WP 186</name></trkpt>
        <trkpt lat="48.7786786258" lon="14.0106528997"><name>WP 187</name></trkpt>
        <trkpt lat="48.7783876061" lon="14.0113663673"><name>WP 188</name></trkpt>
        <trkpt lat="48.7780965865" lon="14.0120650828"><name>WP 189</name></trkpt>
        <trkpt lat="48.7780617177" lon="14.0121750534"><name>WP 190</name></trkpt>
        <trkpt lat="48.7780087441" lon="14.0122850239"><name>WP 191</name></trkpt>
        <trkpt lat="48.7777532637" lon="14.0129569173"><name>WP 192</name></trkpt>
        <trkpt lat="48.7774977833" lon="14.0135617554"><name>WP 193</name></trkpt>
        <trkpt lat="48.7773475796" lon="14.0138500929"><name>WP 194</name></trkpt>
        <trkpt lat="48.7772939354" lon="14.0139332414"><name>WP 195</name></trkpt>
        <trkpt lat="48.7770632654" lon="14.0142779052"><name>WP 196</name></trkpt>
        <trkpt lat="48.7768674642" lon="14.0145125985"><name>WP 197</name></trkpt>
        <trkpt lat="48.7768051028" lon="14.0145823359"><name>WP 198</name></trkpt>
        <trkpt lat="48.7764208764" lon="14.014916271"><name>WP 199</name></trkpt>
        <trkpt lat="48.7763404101" lon="14.0149725974"><name>WP 200</name></trkpt>
        <trkpt lat="48.775838837" lon="14.0152408183"><name>WP 201</name></trkpt>
        <trkpt lat="48.7752923369" lon="14.0154969692"><name>WP 202</name></trkpt>
        <trkpt lat="48.7751132995" lon="14.0155814588"><name>WP 203</name></trkpt>
        <trkpt lat="48.7750864774" lon="14.015596211"><name>WP 204</name></trkpt>
        <trkpt lat="48.7749161571" lon="14.0157209337"><name>WP 205</name></trkpt>
        <trkpt lat="48.7744427472" lon="14.016097784"><name>WP 206</name></trkpt>
        <trkpt lat="48.7740498036" lon="14.0164330602"><name>WP 207</name></trkpt>
        <trkpt lat="48.7736219913" lon="14.0169037879"><name>WP 208</name></trkpt>
        <trkpt lat="48.7731492519" lon="14.0174026787"><name>WP 209</name></trkpt>
        <trkpt lat="48.7726771832" lon="14.0179163218"><name>WP 210</name></trkpt>
        <trkpt lat="48.7721863389" lon="14.0184152126"><name>WP 211</name></trkpt>
        <trkpt lat="48.7717404217" lon="14.0188591182"><name>WP 212</name></trkpt>
        <trkpt lat="48.7713662535" lon="14.0192480385"><name>WP 213</name></trkpt>
        <trkpt lat="48.7709029019" lon="14.0197871625"><name>WP 214</name></trkpt>
        <trkpt lat="48.7704395503" lon="14.0203008056"><name>WP 215</name></trkpt>
        <trkpt lat="48.7699399889" lon="14.0208131075"><name>WP 216</name></trkpt>
        <trkpt lat="48.7698689103" lon="14.020909667"><name>WP 217</name></trkpt>
        <trkpt lat="48.7697173655" lon="14.0210625529"><name>WP 218</name></trkpt>
        <trkpt lat="48.7696905434" lon="14.0210907161"><name>WP 219</name></trkpt>
        <trkpt lat="48.7696281821" lon="14.0211872756"><name>WP 220</name></trkpt>
        <trkpt lat="48.7692278624" lon="14.0216848254"><name>WP 221</name></trkpt>
        <trkpt lat="48.7691561133" lon="14.0217129886"><name>WP 222</name></trkpt>
        <trkpt lat="48.7691380084" lon="14.0216995776"><name>WP 223</name></trkpt>
        <trkpt lat="48.7686384469" lon="14.0222534537"><name>WP 224</name></trkpt>
        <trkpt lat="48.768094629" lon="14.022822082"><name>WP 225</name></trkpt>
        <trkpt lat="48.7675863504" lon="14.0233357251"><name>WP 226</name></trkpt>
        <trkpt lat="48.7672651559" lon="14.023668319"><name>WP 227</name></trkpt>
        <trkpt lat="48.7672027946" lon="14.0237246454"><name>WP 228</name></trkpt>
        <trkpt lat="48.7668279558" lon="14.0240988135"><name>WP 229</name></trkpt>
        <trkpt lat="48.7663190067" lon="14.0245038271"><name>WP 230</name></trkpt>
        <trkpt lat="48.7660420686" lon="14.0247546136"><name>WP 231</name></trkpt>
        <trkpt lat="48.765578717" lon="14.0252535045"><name>WP 232</name></trkpt>
        <trkpt lat="48.7653554231" lon="14.0254747868"><name>WP 233</name></trkpt>
        <trkpt lat="48.7652749568" lon="14.0255445242"><name>WP 234</name></trkpt>
        <trkpt lat="48.7651851028" lon="14.0255458653"><name>WP 235</name></trkpt>
        <trkpt lat="48.7651032954" lon="14.0254667401"><name>WP 236</name></trkpt>
        <trkpt lat="48.7646573782" lon="14.024861902"><name>WP 237</name></trkpt>
        <trkpt lat="48.7642751634" lon="14.0243120492"><name>WP 238</name></trkpt>
        <trkpt lat="48.7642107904" lon="14.0242047608"><name>WP 239</name></trkpt>
        <trkpt lat="48.7641014904" lon="14.024002254"><name>WP 240</name></trkpt>
        <trkpt lat="48.7640290707" lon="14.0239499509"><name>WP 241</name></trkpt>
        <trkpt lat="48.7639486045" lon="14.0239781141"><name>WP 242</name></trkpt>
        <trkpt lat="48.7635207921" lon="14.0245038271"><name>WP 243</name></trkpt>
        <trkpt lat="48.7632270902" lon="14.0248216689"><name>WP 244</name></trkpt>
        <trkpt lat="48.7630748749" lon="14.0249611437"><name>WP 245</name></trkpt>
        <trkpt lat="48.7629233301" lon="14.0250724554"><name>WP 246</name></trkpt>
        <trkpt lat="48.7625109404" lon="14.0252991021"><name>WP 247</name></trkpt>
        <trkpt lat="48.7624304742" lon="14.0253406763"><name>WP 248</name></trkpt>
        <trkpt lat="48.7623406202" lon="14.0253433585"><name>WP 249</name></trkpt>
        <trkpt lat="48.7622594833" lon="14.0253312886"><name>WP 250</name></trkpt>
        <trkpt lat="48.7619342655" lon="14.0251462162"><name>WP 251</name></trkpt>
        <trkpt lat="48.7617894262" lon="14.0250536799"><name>WP 252</name></trkpt>
        <trkpt lat="48.7617076188" lon="14.0249745548"><name>WP 253</name></trkpt>
        <trkpt lat="48.7616620213" lon="14.0249209106"><name>WP 254</name></trkpt>
        <trkpt lat="48.761626482" lon="14.0249624848"><name>WP 255</name></trkpt>
    </trkseg>
    </trk>
</gpx>