<?xml version="1.0" encoding="utf-8"?>
<gpx creator="mapy.cz" version="1.1" xmlns="http://www.topografix.com/GPX/1/1" xmlns:xsi="http://www.w3.org/2001/XMLSchema-instance" xsi:schemaLocation="http://www.topografix.com/GPX/1/1 http://www.topografix.com/GPX/1/1/gpx.xsd">
<trk><name></name>
    <trkseg>
        <trkpt lat="49.2529381067" lon="14.4185753167"><name>WP 001</name></trkpt>
        <trkpt lat="49.2530883104" lon="14.4179691374"><name>WP 002</name></trkpt>
        <trkpt lat="49.253141284" lon="14.4177478552"><name>WP 003</name></trkpt>
        <trkpt lat="49.2531935871" lon="14.4174045324"><name>WP 004</name></trkpt>
        <trkpt lat="49.2532190681" lon="14.4171430171"><name>WP 005</name></trkpt>
        <trkpt lat="49.2532599717" lon="14.4163316488"><name>WP 006</name></trkpt>
        <trkpt lat="49.2532774061" lon="14.4162082672"><name>WP 007</name></trkpt>
        <trkpt lat="49.2532841116" lon="14.4158233702"><name>WP 008</name></trkpt>
        <trkpt lat="49.2532834411" lon="14.4157133996"><name>WP 009</name></trkpt>
        <trkpt lat="49.2532787472" lon="14.4147786498"><name>WP 010</name></trkpt>
        <trkpt lat="49.2532874644" lon="14.4146686792"><name>WP 011</name></trkpt>
        <trkpt lat="49.2532867938" lon="14.4145452976"><name>WP 012</name></trkpt>
        <trkpt lat="49.2532861233" lon="14.4144205749"><name>WP 013</name></trkpt>
        <trkpt lat="49.2532854527" lon="14.4143106043"><name>WP 014</name></trkpt>
        <trkpt lat="49.253301546" lon="14.4138988853"><name>WP 015</name></trkpt>
        <trkpt lat="49.2533592135" lon="14.4128541648"><name>WP 016</name></trkpt>
        <trkpt lat="49.2533934116" lon="14.412509501"><name>WP 017</name></trkpt>
        <trkpt lat="49.2534785718" lon="14.411559999"><name>WP 018</name></trkpt>
        <trkpt lat="49.2535214871" lon="14.4111482799"><name>WP 019</name></trkpt>
        <trkpt lat="49.2536515743" lon="14.410212189"><name>WP 020</name></trkpt>
        <trkpt lat="49.2537286878" lon="14.4094826281"><name>WP 021</name></trkpt>
        <trkpt lat="49.2537716031" lon="14.4090011716"><name>WP 022</name></trkpt>
        <trkpt lat="49.2538118362" lon="14.408107996"><name>WP 023</name></trkpt>
        <trkpt lat="49.2538520694" lon="14.4072268903"><name>WP 024</name></trkpt>
        <trkpt lat="49.2538688332" lon="14.4069935381"><name>WP 025</name></trkpt>
        <trkpt lat="49.2539184541" lon="14.4061553478"><name>WP 026</name></trkpt>
        <trkpt lat="49.2539855093" lon="14.4052326679"><name>WP 027</name></trkpt>
        <trkpt lat="49.2539942265" lon="14.4051226974"><name>WP 028</name></trkpt>
        <trkpt lat="49.2540451884" lon="14.4045312703"><name>WP 029</name></trkpt>
        <trkpt lat="49.25407134" lon="14.4043944776"><name>WP 030</name></trkpt>
        <trkpt lat="49.2541243136" lon="14.4041182101"><name>WP 031</name></trkpt>
        <trkpt lat="49.2541947216" lon="14.4038835168"><name>WP 032</name></trkpt>
        <trkpt lat="49.2544334382" lon="14.4031257927"><name>WP 033</name></trkpt>
        <trkpt lat="49.2546721548" lon="14.4023251534"><name>WP 034</name></trkpt>
        <trkpt lat="49.2548941076" lon="14.401704222"><name>WP 035</name></trkpt>
        <trkpt lat="49.2549296468" lon="14.4016076624"><name>WP 036</name></trkpt>
        <trkpt lat="49.2552226782" lon="14.4008204341"><name>WP 037</name></trkpt>
        <trkpt lat="49.2552756518" lon="14.4006688893"><name>WP 038</name></trkpt>
        <trkpt lat="49.2554171383" lon="14.4002692401"><name>WP 039</name></trkpt>
        <trkpt lat="49.2556927353" lon="14.3995785713"><name>WP 040</name></trkpt>
        <trkpt lat="49.2557369918" lon="14.3994672596"><name>WP 041</name></trkpt>
        <trkpt lat="49.2560662329" lon="14.3987081945"><name>WP 042</name></trkpt>
        <trkpt lat="49.256323725" lon="14.3981140852"><name>WP 043</name></trkpt>
        <trkpt lat="49.2563418299" lon="14.398099333"><name>WP 044</name></trkpt>
        <trkpt lat="49.2565637827" lon="14.3975883722"><name>WP 045</name></trkpt>
        <trkpt lat="49.2568655312" lon="14.3968293071"><name>WP 046</name></trkpt>
        <trkpt lat="49.2568923533" lon="14.3967193365"><name>WP 047</name></trkpt>
        <trkpt lat="49.2569097877" lon="14.396622777"><name>WP 048</name></trkpt>
        <trkpt lat="49.256927222" lon="14.3964980543"><name>WP 049</name></trkpt>
        <trkpt lat="49.2569439858" lon="14.3963612616"><name>WP 050</name></trkpt>
        <trkpt lat="49.2569439858" lon="14.396251291"><name>WP 051</name></trkpt>
        <trkpt lat="49.2569607496" lon="14.3960997462"><name>WP 052</name></trkpt>
        <trkpt lat="49.2569869012" lon="14.3959750235"><name>WP 053</name></trkpt>
        <trkpt lat="49.2570224404" lon="14.3958516419"><name>WP 054</name></trkpt>
        <trkpt lat="49.2571297288" lon="14.3956437707"><name>WP 055</name></trkpt>
        <trkpt lat="49.2573349178" lon="14.395352751"><name>WP 056</name></trkpt>
        <trkpt lat="49.2573972791" lon="14.3952427804"><name>WP 057</name></trkpt>
        <trkpt lat="49.2574415356" lon="14.395159632"><name>WP 058</name></trkpt>
        <trkpt lat="49.2575749755" lon="14.3947868049"><name>WP 059</name></trkpt>
        <trkpt lat="49.2576279491" lon="14.3946620822"><name>WP 060</name></trkpt>
        <trkpt lat="49.2576903105" lon="14.3945373595"><name>WP 061</name></trkpt>
        <trkpt lat="49.257806316" lon="14.3943308294"><name>WP 062</name></trkpt>
        <trkpt lat="49.2578773946" lon="14.3942329288"><name>WP 063</name></trkpt>
        <trkpt lat="49.2579491436" lon="14.3941497803"><name>WP 064</name></trkpt>
        <trkpt lat="49.2580919713" lon="14.3939968944"><name>WP 065</name></trkpt>
        <trkpt lat="49.2582448572" lon="14.3938708305"><name>WP 066</name></trkpt>
        <trkpt lat="49.25857611" lon="14.3936468661"><name>WP 067</name></trkpt>
        <trkpt lat="49.2586123198" lon="14.393620044"><name>WP 068</name></trkpt>
        <trkpt lat="49.2587015033" lon="14.3935637176"><name>WP 069</name></trkpt>
        <trkpt lat="49.2587913573" lon="14.3935208023"><name>WP 070</name></trkpt>
        <trkpt lat="49.2588724941" lon="14.3934926391"><name>WP 071</name></trkpt>
        <trkpt lat="49.2589529604" lon="14.3934644759"><name>WP 072</name></trkpt>
        <trkpt lat="49.2590428144" lon="14.3934631348"><name>WP 073</name></trkpt>
        <trkpt lat="49.2591239512" lon="14.3934483826"><name>WP 074</name></trkpt>
        <trkpt lat="49.2592138052" lon="14.3934604526"><name>WP 075</name></trkpt>
        <trkpt lat="49.259384796" lon="14.3934859335"><name>WP 076</name></trkpt>
        <trkpt lat="49.2594659328" lon="14.3935127556"><name>WP 077</name></trkpt>
        <trkpt lat="49.259853512" lon="14.3936723471"><name>WP 078</name></trkpt>
        <trkpt lat="49.2600788176" lon="14.3937394023"><name>WP 079</name></trkpt>
        <trkpt lat="49.2603671551" lon="14.3937769532"><name>WP 080</name></trkpt>
        <trkpt lat="49.2603939772" lon="14.3937769532"><name>WP 081</name></trkpt>
        <trkpt lat="49.2604657263" lon="14.3937890232"><name>WP 082</name></trkpt>
        <trkpt lat="49.260520041" lon="14.3938024342"><name>WP 083</name></trkpt>
        <trkpt lat="49.2610960454" lon="14.3938909471"><name>WP 084</name></trkpt>
        <trkpt lat="49.261258319" lon="14.393889606"><name>WP 085</name></trkpt>
        <trkpt lat="49.261438027" lon="14.3938601017"><name>WP 086</name></trkpt>
        <trkpt lat="49.2617518455" lon="14.3937595189"><name>WP 087</name></trkpt>
        <trkpt lat="49.2618235946" lon="14.3937179446"><name>WP 088</name></trkpt>
        <trkpt lat="49.2618953437" lon="14.3936347961"><name>WP 089</name></trkpt>
        <trkpt lat="49.2619489878" lon="14.3935100734"><name>WP 090</name></trkpt>
        <trkpt lat="49.2619751394" lon="14.3934135139"><name>WP 091</name></trkpt>
        <trkpt lat="49.2619925737" lon="14.3932619691"><name>WP 092</name></trkpt>
        <trkpt lat="49.2620006204" lon="14.3931519985"><name>WP 093</name></trkpt>
        <trkpt lat="49.262008667" lon="14.3929186463"><name>WP 094</name></trkpt>
        <trkpt lat="49.2620254308" lon="14.392683953"><name>WP 095</name></trkpt>
        <trkpt lat="49.2620321363" lon="14.392285645"><name>WP 096</name></trkpt>
        <trkpt lat="49.2620408535" lon="14.3921622634"><name>WP 097</name></trkpt>
        <trkpt lat="49.2620381713" lon="14.3916673958"><name>WP 098</name></trkpt>
        <trkpt lat="49.2623506486" lon="14.3912369013"><name>WP 099</name></trkpt>
        <trkpt lat="49.2624666542" lon="14.3910987675"><name>WP 100</name></trkpt>
        <trkpt lat="49.2626101524" lon="14.3909592927"><name>WP 101</name></trkpt>
        <trkpt lat="49.2630761862" lon="14.3906240165"><name>WP 102</name></trkpt>
        <trkpt lat="49.2633001506" lon="14.3904416263"><name>WP 103</name></trkpt>
        <trkpt lat="49.2634516954" lon="14.3903021514"><name>WP 104</name></trkpt>
        <trkpt lat="49.2635415494" lon="14.3902055919"><name>WP 105</name></trkpt>
        <trkpt lat="49.2636039108" lon="14.3901358545"><name>WP 106</name></trkpt>
        <trkpt lat="49.2637822777" lon="14.3898582458"><name>WP 107</name></trkpt>
        <trkpt lat="49.2641121894" lon="14.3892359734"><name>WP 108</name></trkpt>
        <trkpt lat="49.2644501477" lon="14.3885721266"><name>WP 109</name></trkpt>
        <trkpt lat="49.264690876" lon="14.3881711364"><name>WP 110</name></trkpt>
        <trkpt lat="49.2647626251" lon="14.3880732358"><name>WP 111</name></trkpt>
        <trkpt lat="49.2648343742" lon="14.3879900873"><name>WP 112</name></trkpt>
        <trkpt lat="49.2649148405" lon="14.3879203498"><name>WP 113</name></trkpt>
        <trkpt lat="49.264985919" lon="14.3878506124"><name>WP 114</name></trkpt>
        <trkpt lat="49.2650670558" lon="14.3878090382"><name>WP 115</name></trkpt>
        <trkpt lat="49.2651569098" lon="14.3877795339"><name>WP 116</name></trkpt>
        <trkpt lat="49.2652467638" lon="14.3877513707"><name>WP 117</name></trkpt>
        <trkpt lat="49.2653366178" lon="14.3877366185"><name>WP 118</name></trkpt>
        <trkpt lat="49.2656692117" lon="14.3877325952"><name>WP 119</name></trkpt>
        <trkpt lat="49.2657858878" lon="14.3877030909"><name>WP 120</name></trkpt>
        <trkpt lat="49.2658938468" lon="14.3876749277"><name>WP 121</name></trkpt>
        <trkpt lat="49.2660018057" lon="14.3876320124"><name>WP 122</name></trkpt>
        <trkpt lat="49.2661003768" lon="14.387575686"><name>WP 123</name></trkpt>
        <trkpt lat="49.266198948" lon="14.3875059485"><name>WP 124</name></trkpt>
        <trkpt lat="49.2662881315" lon="14.3874228001"><name>WP 125</name></trkpt>
        <trkpt lat="49.2664584517" lon="14.3872283399"><name>WP 126</name></trkpt>
        <trkpt lat="49.2665382475" lon="14.3871170282"><name>WP 127</name></trkpt>
        <trkpt lat="49.26669918" lon="14.3868675828"><name>WP 128</name></trkpt>
        <trkpt lat="49.2671444267" lon="14.3860092759"><name>WP 129</name></trkpt>
        <trkpt lat="49.2675185949" lon="14.3853038549"><name>WP 130</name></trkpt>
        <trkpt lat="49.2678659409" lon="14.3846668303"><name>WP 131</name></trkpt>
        <trkpt lat="49.268258214" lon="14.3839748204"><name>WP 132</name></trkpt>
        <trkpt lat="49.2686229944" lon="14.3833243847"><name>WP 133</name></trkpt>
        <trkpt lat="49.2690239847" lon="14.3826189637"><name>WP 134</name></trkpt>
        <trkpt lat="49.2693009228" lon="14.382148236"><name>WP 135</name></trkpt>
        <trkpt lat="49.2695684731" lon="14.3817593157"><name>WP 136</name></trkpt>
        <trkpt lat="49.26974684" lon="14.3815380335"><name>WP 137</name></trkpt>
        <trkpt lat="49.2700425535" lon="14.3812175095"><name>WP 138</name></trkpt>
        <trkpt lat="49.270516634" lon="14.3808272481"><name>WP 139</name></trkpt>
        <trkpt lat="49.2709290236" lon="14.380505383"><name>WP 140</name></trkpt>
        <trkpt lat="49.2712958157" lon="14.3801432848"><name>WP 141</name></trkpt>
        <trkpt lat="49.2715459317" lon="14.379850924"><name>WP 142</name></trkpt>
        <trkpt lat="49.2720910907" lon="14.3791159987"><name>WP 143</name></trkpt>
        <trkpt lat="49.2724927515" lon="14.3785755336"><name>WP 144</name></trkpt>
        <trkpt lat="49.2729212344" lon="14.3780055642"><name>WP 145</name></trkpt>
        <trkpt lat="49.2729212344" lon="14.3780055642"><name>WP 146</name></trkpt>
        <trkpt lat="49.2733497173" lon="14.3774087727"><name>WP 147</name></trkpt>
        <trkpt lat="49.2737875879" lon="14.3768267334"><name>WP 148</name></trkpt>
        <trkpt lat="49.274269715" lon="14.3762017787"><name>WP 149</name></trkpt>
        <trkpt lat="49.2746807635" lon="14.3756599724"><name>WP 150</name></trkpt>
        <trkpt lat="49.2749932408" lon="14.3752160668"><name>WP 151</name></trkpt>
        <trkpt lat="49.2750287801" lon="14.3751610816"><name>WP 152</name></trkpt>
        <trkpt lat="49.2752433568" lon="14.3748553097"><name>WP 153</name></trkpt>
        <trkpt lat="49.2756363004" lon="14.3743014336"><name>WP 154</name></trkpt>
        <trkpt lat="49.2761003226" lon="14.3736349046"><name>WP 155</name></trkpt>
        <trkpt lat="49.2765730619" lon="14.3729831278"><name>WP 156</name></trkpt>
        <trkpt lat="49.277100116" lon="14.3723031878"><name>WP 157</name></trkpt>
        <trkpt lat="49.277350232" lon="14.3719424307"><name>WP 158</name></trkpt>
        <trkpt lat="49.2774038762" lon="14.3718592823"><name>WP 159</name></trkpt>
        <trkpt lat="49.2774575204" lon="14.3717761338"><name>WP 160</name></trkpt>
        <trkpt lat="49.2775460333" lon="14.3715816736"><name>WP 161</name></trkpt>
        <trkpt lat="49.2776345462" lon="14.3713335693"><name>WP 162</name></trkpt>
        <trkpt lat="49.2778377235" lon="14.3706294894"><name>WP 163</name></trkpt>
        <trkpt lat="49.2778906971" lon="14.3704095483"><name>WP 164</name></trkpt>
        <trkpt lat="49.2779262364" lon="14.3702982366"><name>WP 165</name></trkpt>
        <trkpt lat="49.2779611051" lon="14.370174855"><name>WP 166</name></trkpt>
        <trkpt lat="49.278190434" lon="14.3693460524"><name>WP 167</name></trkpt>
        <trkpt lat="49.2784291506" lon="14.3685185909"><name>WP 168</name></trkpt>
        <trkpt lat="49.2784646899" lon="14.3684086204"><name>WP 169</name></trkpt>
        <trkpt lat="49.2786853015" lon="14.3676348031"><name>WP 170</name></trkpt>
        <trkpt lat="49.2789233476" lon="14.3668073416"><name>WP 171</name></trkpt>
        <trkpt lat="49.2791613936" lon="14.3659383059"><name>WP 172</name></trkpt>
        <trkpt lat="49.2793907225" lon="14.3650692701"><name>WP 173</name></trkpt>
        <trkpt lat="49.2795932293" lon="14.364323616"><name>WP 174</name></trkpt>
        <trkpt lat="49.2796636373" lon="14.3640621006"><name>WP 175</name></trkpt>
        <trkpt lat="49.2797078937" lon="14.3639239669"><name>WP 176</name></trkpt>
        <trkpt lat="49.279743433" lon="14.3637858331"><name>WP 177</name></trkpt>
        <trkpt lat="49.2799466103" lon="14.3630817533"><name>WP 178</name></trkpt>
        <trkpt lat="49.2799727619" lon="14.3629717827"><name>WP 179</name></trkpt>
        <trkpt lat="49.2801316828" lon="14.3624192476"><name>WP 180</name></trkpt>
        <trkpt lat="49.2802557349" lon="14.3620464206"><name>WP 181</name></trkpt>
        <trkpt lat="49.2802999914" lon="14.361923039"><name>WP 182</name></trkpt>
        <trkpt lat="49.2803442478" lon="14.3618398905"><name>WP 183</name></trkpt>
        <trkpt lat="49.280397892" lon="14.361756742"><name>WP 184</name></trkpt>
        <trkpt lat="49.2804602534" lon="14.3616735935"><name>WP 185</name></trkpt>
        <trkpt lat="49.2805407196" lon="14.3616038561"><name>WP 186</name></trkpt>
        <trkpt lat="49.2806305736" lon="14.3615743518"><name>WP 187</name></trkpt>
        <trkpt lat="49.2807204276" lon="14.3615877628"><name>WP 188</name></trkpt>
        <trkpt lat="49.280802235" lon="14.3616548181"><name>WP 189</name></trkpt>
        <trkpt lat="49.2808565497" lon="14.3617084622"><name>WP 190</name></trkpt>
        <trkpt lat="49.2809108645" lon="14.3618050218"><name>WP 191</name></trkpt>
        <trkpt lat="49.280956462" lon="14.3619002402"><name>WP 192</name></trkpt>
        <trkpt lat="49.2809839547" lon="14.3619820476"><name>WP 193</name></trkpt>
        <trkpt lat="49.2809839547" lon="14.3619820476"><name>WP 194</name></trkpt>
        <trkpt lat="49.2810845375" lon="14.3622972071"><name>WP 195</name></trkpt>
        <trkpt lat="49.2812950909" lon="14.3629275262"><name>WP 196</name></trkpt>
        <trkpt lat="49.281386286" lon="14.3631461263"><name>WP 197</name></trkpt>
        <trkpt lat="49.2814406008" lon="14.3632695079"><name>WP 198</name></trkpt>
        <trkpt lat="49.2815499008" lon="14.3634733558"><name>WP 199</name></trkpt>
        <trkpt lat="49.2816042155" lon="14.3635551631"><name>WP 200</name></trkpt>
        <trkpt lat="49.2816947401" lon="14.3636785448"><name>WP 201</name></trkpt>
        <trkpt lat="49.2818127573" lon="14.3638421595"><name>WP 202</name></trkpt>
        <trkpt lat="49.2818757892" lon="14.3639373779"><name>WP 203</name></trkpt>
        <trkpt lat="49.2818945646" lon="14.3639642"><name>WP 204</name></trkpt>
        <trkpt lat="49.2819488794" lon="14.3640594184"><name>WP 205</name></trkpt>
        <trkpt lat="49.2820756137" lon="14.3642511964"><name>WP 206</name></trkpt>
        <trkpt lat="49.2821480334" lon="14.3643598258"><name>WP 207</name></trkpt>
        <trkpt lat="49.2822117358" lon="14.3644282222"><name>WP 208</name></trkpt>
        <trkpt lat="49.2823384702" lon="14.3645502627"><name>WP 209</name></trkpt>
        <trkpt lat="49.2824102193" lon="14.3645904958"><name>WP 210</name></trkpt>
        <trkpt lat="49.282482639" lon="14.364630729"><name>WP 211</name></trkpt>
        <trkpt lat="49.282554388" lon="14.3646427989"><name>WP 212</name></trkpt>
        <trkpt lat="49.2827796936" lon="14.3646548688"><name>WP 213</name></trkpt>
        <trkpt lat="49.2828608304" lon="14.3646669388"><name>WP 214</name></trkpt>
        <trkpt lat="49.2829325795" lon="14.3646937609"><name>WP 215</name></trkpt>
        <trkpt lat="49.2830231041" lon="14.364733994"><name>WP 216</name></trkpt>
        <trkpt lat="49.2831042409" lon="14.3647876382"><name>WP 217</name></trkpt>
        <trkpt lat="49.2831404507" lon="14.3648278713"><name>WP 218</name></trkpt>
        <trkpt lat="49.2832034826" lon="14.3648962677"><name>WP 219</name></trkpt>
        <trkpt lat="49.2832584679" lon="14.3649914861"><name>WP 220</name></trkpt>
        <trkpt lat="49.2833127826" lon="14.3651014566"><name>WP 221</name></trkpt>
        <trkpt lat="49.2833670974" lon="14.3652248383"><name>WP 222</name></trkpt>
        <trkpt lat="49.2834951729" lon="14.3655520678"><name>WP 223</name></trkpt>
        <trkpt lat="49.2837506533" lon="14.3662507832"><name>WP 224</name></trkpt>
        <trkpt lat="49.283869341" lon="14.3665511906"><name>WP 225</name></trkpt>
        <trkpt lat="49.283978641" lon="14.3667697906"><name>WP 226</name></trkpt>
        <trkpt lat="49.2840872705" lon="14.3669615686"><name>WP 227</name></trkpt>
        <trkpt lat="49.2841422558" lon="14.367043376"><name>WP 228</name></trkpt>
        <trkpt lat="49.2842596024" lon="14.3672069907"><name>WP 229</name></trkpt>
        <trkpt lat="49.2844500393" lon="14.3674376607"><name>WP 230</name></trkpt>
        <trkpt lat="49.2846760154" lon="14.3676830828"><name>WP 231</name></trkpt>
        <trkpt lat="49.2847397178" lon="14.367750138"><name>WP 232</name></trkpt>
        <trkpt lat="49.2847940326" lon="14.3678466976"><name>WP 233</name></trkpt>
        <trkpt lat="49.284857735" lon="14.3679687381"><name>WP 234</name></trkpt>
        <trkpt lat="49.2849489301" lon="14.3681873381"><name>WP 235</name></trkpt>
        <trkpt lat="49.2850307375" lon="14.3684206903"><name>WP 236</name></trkpt>
        <trkpt lat="49.2850951105" lon="14.3686258793"><name>WP 237</name></trkpt>
        <trkpt lat="49.2853331566" lon="14.3693245947"><name>WP 238</name></trkpt>
        <trkpt lat="49.2855980247" lon="14.3700769544"><name>WP 239</name></trkpt>
        <trkpt lat="49.2857797444" lon="14.3704739213"><name>WP 240</name></trkpt>
        <trkpt lat="49.2859433591" lon="14.3707609177"><name>WP 241</name></trkpt>
        <trkpt lat="49.2860070616" lon="14.3708561361"><name>WP 242</name></trkpt>
        <trkpt lat="49.2864053696" lon="14.3713738024"><name>WP 243</name></trkpt>
        <trkpt lat="49.2864596844" lon="14.3714556098"><name>WP 244</name></trkpt>
        <trkpt lat="49.2866682261" lon="14.3717828393"><name>WP 245</name></trkpt>
        <trkpt lat="49.2870048434" lon="14.3724104762"><name>WP 246</name></trkpt>
        <trkpt lat="49.2872046679" lon="14.3727792799"><name>WP 247</name></trkpt>
        <trkpt lat="49.2873139679" lon="14.3729844689"><name>WP 248</name></trkpt>
        <trkpt lat="49.2874688655" lon="14.3733398616"><name>WP 249</name></trkpt>
        <trkpt lat="49.2875050753" lon="14.3734498322"><name>WP 250</name></trkpt>
        <trkpt lat="49.287532568" lon="14.3735598028"><name>WP 251</name></trkpt>
        <trkpt lat="49.2875607312" lon="14.3737100065"><name>WP 252</name></trkpt>
        <trkpt lat="49.2875701189" lon="14.3738615513"><name>WP 253</name></trkpt>
        <trkpt lat="49.28757146" lon="14.3740265071"><name>WP 254</name></trkpt>
        <trkpt lat="49.287590906" lon="14.374396652"><name>WP 255</name></trkpt>
        <trkpt lat="49.2876197398" lon="14.3746300042"><name>WP 256</name></trkpt>
        <trkpt lat="49.2876378447" lon="14.3747547269"><name>WP 257</name></trkpt>
        <trkpt lat="49.2876747251" lon="14.3748915195"><name>WP 258</name></trkpt>
        <trkpt lat="49.2877934128" lon="14.3752469122"><name>WP 259</name></trkpt>
        <trkpt lat="49.2881400883" lon="14.3760676682"><name>WP 260</name></trkpt>
        <trkpt lat="49.2884592712" lon="14.376848191"><name>WP 261</name></trkpt>
        <trkpt lat="49.2887865007" lon="14.3775857985"><name>WP 262</name></trkpt>
        <trkpt lat="49.2888320982" lon="14.377682358"><name>WP 263</name></trkpt>
        <trkpt lat="49.2889776081" lon="14.3779693544"><name>WP 264</name></trkpt>
        <trkpt lat="49.2893316597" lon="14.3785701692"><name>WP 265</name></trkpt>
        <trkpt lat="49.2894677818" lon="14.3787606061"><name>WP 266</name></trkpt>
        <trkpt lat="49.2895402014" lon="14.3788558245"><name>WP 267</name></trkpt>
        <trkpt lat="49.2896220088" lon="14.3789510429"><name>WP 268</name></trkpt>
        <trkpt lat="49.2897031456" lon="14.3790180981"><name>WP 269</name></trkpt>
        <trkpt lat="49.2897842824" lon="14.3790864944"><name>WP 270</name></trkpt>
        <trkpt lat="49.289874807" lon="14.3791401386"><name>WP 271</name></trkpt>
        <trkpt lat="49.290009588" lon="14.3792071939"><name>WP 272</name></trkpt>
        <trkpt lat="49.2901631445" lon="14.3792326748"><name>WP 273</name></trkpt>
        <trkpt lat="49.2903341353" lon="14.3792447448"><name>WP 274</name></trkpt>
        <trkpt lat="49.2904870212" lon="14.3792702258"><name>WP 275</name></trkpt>
        <trkpt lat="49.2907210439" lon="14.3793641031"><name>WP 276</name></trkpt>
        <trkpt lat="49.2908839881" lon="14.3794579804"><name>WP 277</name></trkpt>
        <trkpt lat="49.290965125" lon="14.3795116246"><name>WP 278</name></trkpt>
        <trkpt lat="49.2911092937" lon="14.3796336651"><name>WP 279</name></trkpt>
        <trkpt lat="49.2911273986" lon="14.3796470761"><name>WP 280</name></trkpt>
        <trkpt lat="49.2912454158" lon="14.3797838688"><name>WP 281</name></trkpt>
        <trkpt lat="49.2916443944" lon="14.3803551793"><name>WP 282</name></trkpt>
        <trkpt lat="49.2920520902" lon="14.3809010088"><name>WP 283</name></trkpt>
        <trkpt lat="49.2921694368" lon="14.3810364604"><name>WP 284</name></trkpt>
        <trkpt lat="49.2926582694" lon="14.3816359341"><name>WP 285</name></trkpt>
        <trkpt lat="49.2931833118" lon="14.3822206557"><name>WP 286</name></trkpt>
        <trkpt lat="49.2937532812" lon="14.3828053772"><name>WP 287</name></trkpt>
        <trkpt lat="49.2942146212" lon="14.3832801282"><name>WP 288</name></trkpt>
        <trkpt lat="49.2947296053" lon="14.3837414682"><name>WP 289</name></trkpt>
        <trkpt lat="49.2950997502" lon="14.3840391934"><name>WP 290</name></trkpt>
        <trkpt lat="49.295380041" lon="14.3842430413"><name>WP 291</name></trkpt>
        <trkpt lat="49.2954524606" lon="14.3842966855"><name>WP 292</name></trkpt>
        <trkpt lat="49.2954792827" lon="14.3843235075"><name>WP 293</name></trkpt>
        <trkpt lat="49.2955429852" lon="14.3843919039"><name>WP 294</name></trkpt>
        <trkpt lat="49.2956154048" lon="14.3844737113"><name>WP 295</name></trkpt>
        <trkpt lat="49.2956697196" lon="14.3845555186"><name>WP 296</name></trkpt>
        <trkpt lat="49.2957240343" lon="14.384637326"><name>WP 297</name></trkpt>
        <trkpt lat="49.2957870662" lon="14.3846091628"><name>WP 298</name></trkpt>
        <trkpt lat="49.2958675325" lon="14.3846212327"><name>WP 299</name></trkpt>
        <trkpt lat="49.2959486693" lon="14.3846614659"><name>WP 300</name></trkpt>
        <trkpt lat="49.2963282019" lon="14.3849189579"><name>WP 301</name></trkpt>
        <trkpt lat="49.2963282019" lon="14.3849189579"><name>WP 302</name></trkpt>
        <trkpt lat="49.2968156934" lon="14.3852555752"><name>WP 303</name></trkpt>
        <trkpt lat="49.297022894" lon="14.3853360415"><name>WP 304</name></trkpt>
        <trkpt lat="49.2970946431" lon="14.3852247298"><name>WP 305</name></trkpt>
        <trkpt lat="49.2983727157" lon="14.3854849041"><name>WP 306</name></trkpt>
        <trkpt lat="49.2985530943" lon="14.3854956329"><name>WP 307</name></trkpt>
        <trkpt lat="49.2985886335" lon="14.3854540586"><name>WP 308</name></trkpt>
        <trkpt lat="49.2986603826" lon="14.3853709102"><name>WP 309</name></trkpt>
        <trkpt lat="49.2987321317" lon="14.3853011727"><name>WP 310</name></trkpt>
        <trkpt lat="49.298812598" lon="14.3852448463"><name>WP 311</name></trkpt>
        <trkpt lat="49.2992162704" lon="14.3849927187"><name>WP 312</name></trkpt>
        <trkpt lat="49.2997359484" lon="14.3846561015"><name>WP 313</name></trkpt>
        <trkpt lat="49.3001932651" lon="14.3843892217"><name>WP 314</name></trkpt>
        <trkpt lat="49.3004266173" lon="14.3842484057"><name>WP 315</name></trkpt>
        <trkpt lat="49.3006230891" lon="14.3840673566"><name>WP 316</name></trkpt>
        <trkpt lat="49.3007129431" lon="14.383969456"><name>WP 317</name></trkpt>
        <trkpt lat="49.3008825928" lon="14.3837749958"><name>WP 318</name></trkpt>
        <trkpt lat="49.3009536713" lon="14.3836636841"><name>WP 319</name></trkpt>
        <trkpt lat="49.3014264107" lon="14.3828885257"><name>WP 320</name></trkpt>
        <trkpt lat="49.3018367887" lon="14.3822085857"><name>WP 321</name></trkpt>
        <trkpt lat="49.3019615114" lon="14.3820422888"><name>WP 322</name></trkpt>
        <trkpt lat="49.3020245433" lon="14.3819859624"><name>WP 323</name></trkpt>
        <trkpt lat="49.3021050096" lon="14.381916225"><name>WP 324</name></trkpt>
        <trkpt lat="49.3021854758" lon="14.3818746507"><name>WP 325</name></trkpt>
        <trkpt lat="49.3022753298" lon="14.3818451464"><name>WP 326</name></trkpt>
        <trkpt lat="49.3026260287" lon="14.3817445636"><name>WP 327</name></trkpt>
        <trkpt lat="49.3031557649" lon="14.3816010654"><name>WP 328</name></trkpt>
        <trkpt lat="49.3034702539" lon="14.3814870715"><name>WP 329</name></trkpt>
        <trkpt lat="49.3035238981" lon="14.3814589083"><name>WP 330</name></trkpt>
        <trkpt lat="49.3037391454" lon="14.3813046813"><name>WP 331</name></trkpt>
        <trkpt lat="49.3039631099" lon="14.3811786175"><name>WP 332</name></trkpt>
        <trkpt lat="49.3041247129" lon="14.38112095"><name>WP 333</name></trkpt>
        <trkpt lat="49.3046631664" lon="14.3809211254"><name>WP 334</name></trkpt>
        <trkpt lat="49.3048965186" lon="14.3807816505"><name>WP 335</name></trkpt>
        <trkpt lat="49.3049233407" lon="14.3807668984"><name>WP 336</name></trkpt>
        <trkpt lat="49.3049950898" lon="14.3807253242"><name>WP 337</name></trkpt>
        <trkpt lat="49.305075556" lon="14.3806689978"><name>WP 338</name></trkpt>
        <trkpt lat="49.3051473051" lon="14.3805992603"><name>WP 339</name></trkpt>
        <trkpt lat="49.3052908033" lon="14.3804597855"><name>WP 340</name></trkpt>
        <trkpt lat="49.3053618819" lon="14.380390048"><name>WP 341</name></trkpt>
        <trkpt lat="49.3054430187" lon="14.3803484738"><name>WP 342</name></trkpt>
        <trkpt lat="49.3055147678" lon="14.3803055584"><name>WP 343</name></trkpt>
        <trkpt lat="49.3056046218" lon="14.3802773952"><name>WP 344</name></trkpt>
        <trkpt lat="49.3056944758" lon="14.3802626431"><name>WP 345</name></trkpt>
        <trkpt lat="49.3058654666" lon="14.3802733719"><name>WP 346</name></trkpt>
        <trkpt lat="49.305882901" lon="14.3802733719"><name>WP 347</name></trkpt>
        <trkpt lat="49.3060451746" lon="14.3802438676"><name>WP 348</name></trkpt>
        <trkpt lat="49.3062335998" lon="14.3802009523"><name>WP 349</name></trkpt>
        <trkpt lat="49.3063234538" lon="14.380171448"><name>WP 350</name></trkpt>
        <trkpt lat="49.3063952029" lon="14.3801298738"><name>WP 351</name></trkpt>
        <trkpt lat="49.306466952" lon="14.3800869584"><name>WP 352</name></trkpt>
        <trkpt lat="49.3065293133" lon="14.380017221"><name>WP 353</name></trkpt>
        <trkpt lat="49.3065923452" lon="14.3799488246"><name>WP 354</name></trkpt>
        <trkpt lat="49.3070302159" lon="14.3794204295"><name>WP 355</name></trkpt>
        <trkpt lat="49.3074506521" lon="14.3789604306"><name>WP 356</name></trkpt>
        <trkpt lat="49.3078979105" lon="14.3785017729"><name>WP 357</name></trkpt>
        <trkpt lat="49.3079870939" lon="14.3784038723"><name>WP 358</name></trkpt>
        <trkpt lat="49.3082821369" lon="14.3780699372"><name>WP 359</name></trkpt>
        <trkpt lat="49.3084698915" lon="14.3778057396"><name>WP 360</name></trkpt>
        <trkpt lat="49.3085322529" lon="14.3777091801"><name>WP 361</name></trkpt>
        <trkpt lat="49.3086656928" lon="14.3774731457"><name>WP 362</name></trkpt>
        <trkpt lat="49.3087099493" lon="14.3773899972"><name>WP 363</name></trkpt>
        <trkpt lat="49.3087723106" lon="14.3772800267"><name>WP 364</name></trkpt>
        <trkpt lat="49.3090043217" lon="14.3768495321"><name>WP 365</name></trkpt>
        <trkpt lat="49.3090666831" lon="14.3767529726"><name>WP 366</name></trkpt>
        <trkpt lat="49.3094408512" lon="14.3760877848"><name>WP 367</name></trkpt>
        <trkpt lat="49.3098237365" lon="14.3753810227"><name>WP 368</name></trkpt>
        <trkpt lat="49.3100825697" lon="14.3749518692"><name>WP 369</name></trkpt>
        <trkpt lat="49.3102696538" lon="14.3746876717"><name>WP 370</name></trkpt>
        <trkpt lat="49.3104218692" lon="14.3745213747"><name>WP 371</name></trkpt>
        <trkpt lat="49.3104936182" lon="14.3744516373"><name>WP 372</name></trkpt>
        <trkpt lat="49.3106545508" lon="14.3743255734"><name>WP 373</name></trkpt>
        <trkpt lat="49.3109234422" lon="14.3741700053"><name>WP 374</name></trkpt>
        <trkpt lat="49.3109140545" lon="14.3740466237"><name>WP 375</name></trkpt>
        <trkpt lat="49.3108932674" lon="14.3735517561"><name>WP 376</name></trkpt>
        <trkpt lat="49.310901314" lon="14.3734283745"><name>WP 377</name></trkpt>
        <trkpt lat="49.3109006435" lon="14.3732902408"><name>WP 378</name></trkpt>
        <trkpt lat="49.3109046668" lon="14.372382313"><name>WP 379</name></trkpt>
        <trkpt lat="49.3109127134" lon="14.3721489608"><name>WP 380</name></trkpt>
        <trkpt lat="49.3109113723" lon="14.3719276786"><name>WP 381</name></trkpt>
        <trkpt lat="49.3109200895" lon="14.371804297"><name>WP 382</name></trkpt>
        <trkpt lat="49.3109335005" lon="14.3710331619"><name>WP 383</name></trkpt>
        <trkpt lat="49.3109469116" lon="14.3701936305"><name>WP 384</name></trkpt>
        <trkpt lat="49.3109516054" lon="14.3693956733"><name>WP 385</name></trkpt>
        <trkpt lat="49.3109469116" lon="14.3684743345"><name>WP 386</name></trkpt>
        <trkpt lat="49.3109060079" lon="14.3676911294"><name>WP 387</name></trkpt>
        <trkpt lat="49.3108402938" lon="14.3671828508"><name>WP 388</name></trkpt>
        <trkpt lat="49.3108128011" lon="14.367017895"><name>WP 389</name></trkpt>
        <trkpt lat="49.3106089532" lon="14.3659745157"><name>WP 390</name></trkpt>
        <trkpt lat="49.3105901778" lon="14.3658511341"><name>WP 391</name></trkpt>
        <trkpt lat="49.3105439097" lon="14.3656177819"><name>WP 392</name></trkpt>
        <trkpt lat="49.3103776127" lon="14.3647259474"><name>WP 393</name></trkpt>
        <trkpt lat="49.3103494495" lon="14.3645475805"><name>WP 394</name></trkpt>
        <trkpt lat="49.3103306741" lon="14.3644241989"><name>WP 395</name></trkpt>
        <trkpt lat="49.3102562428" lon="14.3639293313"><name>WP 396</name></trkpt>
        <trkpt lat="49.3102374673" lon="14.3638193607"><name>WP 397</name></trkpt>
        <trkpt lat="49.310163036" lon="14.3633258343"><name>WP 398</name></trkpt>
        <trkpt lat="49.310124144" lon="14.362899363"><name>WP 399</name></trkpt>
        <trkpt lat="49.3101140857" lon="14.3626378477"><name>WP 400</name></trkpt>
        <trkpt lat="49.3101134151" lon="14.362514466"><name>WP 401</name></trkpt>
        <trkpt lat="49.3101301789" lon="14.3622663617"><name>WP 402</name></trkpt>
        <trkpt lat="49.3101811409" lon="14.3618251383"><name>WP 403</name></trkpt>
        <trkpt lat="49.3102595955" lon="14.3613021076"><name>WP 404</name></trkpt>
        <trkpt lat="49.3102770299" lon="14.3611773849"><name>WP 405</name></trkpt>
        <trkpt lat="49.3103635311" lon="14.3606127799"><name>WP 406</name></trkpt>
        <trkpt lat="49.310503006" lon="14.3597437441"><name>WP 407</name></trkpt>
        <trkpt lat="49.3105291575" lon="14.3596471846"><name>WP 408</name></trkpt>
        <trkpt lat="49.3105465919" lon="14.359537214"><name>WP 409</name></trkpt>
        <trkpt lat="49.3106773496" lon="14.358792901"><name>WP 410</name></trkpt>
        <trkpt lat="49.3108342588" lon="14.35786888"><name>WP 411</name></trkpt>
        <trkpt lat="49.3108604103" lon="14.3577307463"><name>WP 412</name></trkpt>
        <trkpt lat="49.3108865619" lon="14.3575926125"><name>WP 413</name></trkpt>
        <trkpt lat="49.3109214306" lon="14.3573726714"><name>WP 414</name></trkpt>
        <trkpt lat="49.3109214306" lon="14.3573726714"><name>WP 415</name></trkpt>
        <trkpt lat="49.3110434711" lon="14.3567235768"><name>WP 416</name></trkpt>
        <trkpt lat="49.3112010509" lon="14.3558558822"><name>WP 417</name></trkpt>
        <trkpt lat="49.3112359196" lon="14.3557311594"><name>WP 418</name></trkpt>
        <trkpt lat="49.3112714589" lon="14.3556064367"><name>WP 419</name></trkpt>
        <trkpt lat="49.3113069981" lon="14.3554964662"><name>WP 420</name></trkpt>
        <trkpt lat="49.3113599718" lon="14.3553851545"><name>WP 421</name></trkpt>
        <trkpt lat="49.3114223331" lon="14.3552738428"><name>WP 422</name></trkpt>
        <trkpt lat="49.3114940822" lon="14.3551772833"><name>WP 423</name></trkpt>
        <trkpt lat="49.3115745485" lon="14.3550793827"><name>WP 424</name></trkpt>
        <trkpt lat="49.3116992712" lon="14.3549412489"><name>WP 425</name></trkpt>
        <trkpt lat="49.312190786" lon="14.3543981016"><name>WP 426</name></trkpt>
        <trkpt lat="49.3123248965" lon="14.3542304635"><name>WP 427</name></trkpt>
        <trkpt lat="49.3123698235" lon="14.354133904"><name>WP 428</name></trkpt>
        <trkpt lat="49.3124140799" lon="14.3540507555"><name>WP 429</name></trkpt>
        <trkpt lat="49.3124496192" lon="14.353954196"><name>WP 430</name></trkpt>
        <trkpt lat="49.3124851584" lon="14.3538576365"><name>WP 431</name></trkpt>
        <trkpt lat="49.31251131" lon="14.3537463248"><name>WP 432</name></trkpt>
        <trkpt lat="49.3125287443" lon="14.3536363542"><name>WP 433</name></trkpt>
        <trkpt lat="49.3125723302" lon="14.3533882499"><name>WP 434</name></trkpt>
        <trkpt lat="49.3125978112" lon="14.3531401455"><name>WP 435</name></trkpt>
        <trkpt lat="49.3126501143" lon="14.352863878"><name>WP 436</name></trkpt>
        <trkpt lat="49.3126501143" lon="14.3528370559"><name>WP 437</name></trkpt>
        <trkpt lat="49.3126762658" lon="14.3527123332"><name>WP 438</name></trkpt>
        <trkpt lat="49.3127379566" lon="14.3524776399"><name>WP 439</name></trkpt>
        <trkpt lat="49.3129578978" lon="14.3516220152"><name>WP 440</name></trkpt>
        <trkpt lat="49.3131429702" lon="14.350849539"><name>WP 441</name></trkpt>
        <trkpt lat="49.3132743984" lon="14.350297004"><name>WP 442</name></trkpt>
        <trkpt lat="49.3133448064" lon="14.3500207365"><name>WP 443</name></trkpt>
        <trkpt lat="49.3134688586" lon="14.3496760726"><name>WP 444</name></trkpt>
        <trkpt lat="49.3136371672" lon="14.3491503596"><name>WP 445</name></trkpt>
        <trkpt lat="49.3136814237" lon="14.3490256369"><name>WP 446</name></trkpt>
        <trkpt lat="49.3137162924" lon="14.3489022553"><name>WP 447</name></trkpt>
        <trkpt lat="49.313884601" lon="14.3483899534"><name>WP 448</name></trkpt>
        <trkpt lat="49.3139201403" lon="14.3482933939"><name>WP 449</name></trkpt>
        <trkpt lat="49.3140435219" lon="14.3478937447"><name>WP 450</name></trkpt>
        <trkpt lat="49.3140696734" lon="14.347782433"><name>WP 451</name></trkpt>
        <trkpt lat="49.3141139299" lon="14.3475477397"><name>WP 452</name></trkpt>
        <trkpt lat="49.3141394109" lon="14.3472996354"><name>WP 453</name></trkpt>
        <trkpt lat="49.3141447753" lon="14.3467497826"><name>WP 454</name></trkpt>
        <trkpt lat="49.3141534925" lon="14.346639812"><name>WP 455</name></trkpt>
        <trkpt lat="49.3141702563" lon="14.3464882672"><name>WP 456</name></trkpt>
        <trkpt lat="49.3142057955" lon="14.3463367224"><name>WP 457</name></trkpt>
        <trkpt lat="49.314250052" lon="14.3461985886"><name>WP 458</name></trkpt>
        <trkpt lat="49.3142943084" lon="14.346100688"><name>WP 459</name></trkpt>
        <trkpt lat="49.3146329373" lon="14.3454770744"><name>WP 460</name></trkpt>
        <trkpt lat="49.3149527907" lon="14.344881624"><name>WP 461</name></trkpt>
        <trkpt lat="49.3152290583" lon="14.3443277478"><name>WP 462</name></trkpt>
        <trkpt lat="49.3155308068" lon="14.3436491489"><name>WP 463</name></trkpt>
        <trkpt lat="49.3156642467" lon="14.3434131145"><name>WP 464</name></trkpt>
        <trkpt lat="49.3156823516" lon="14.3433715403"><name>WP 465</name></trkpt>
        <trkpt lat="49.315726608" lon="14.3432883918"><name>WP 466</name></trkpt>
        <trkpt lat="49.3160826713" lon="14.3426513672"><name>WP 467</name></trkpt>
        <trkpt lat="49.3161899596" lon="14.342456907"><name>WP 468</name></trkpt>
        <trkpt lat="49.316252321" lon="14.3423737586"><name>WP 469</name></trkpt>
        <trkpt lat="49.3163059652" lon="14.3423040211"><name>WP 470</name></trkpt>
        <trkpt lat="49.3163683265" lon="14.3422208726"><name>WP 471</name></trkpt>
        <trkpt lat="49.3164400756" lon="14.3421511352"><name>WP 472</name></trkpt>
        <trkpt lat="49.3165111542" lon="14.3420813978"><name>WP 473</name></trkpt>
        <trkpt lat="49.3170489371" lon="14.3416616321"><name>WP 474</name></trkpt>
        <trkpt lat="49.3171381205" lon="14.3415784836"><name>WP 475</name></trkpt>
        <trkpt lat="49.3176577985" lon="14.3411721289"><name>WP 476</name></trkpt>
        <trkpt lat="49.3181231618" lon="14.3408221006"><name>WP 477</name></trkpt>
        <trkpt lat="49.3186428398" lon="14.3404023349"><name>WP 478</name></trkpt>
        <trkpt lat="49.319126308" lon="14.3400509655"><name>WP 479</name></trkpt>
        <trkpt lat="49.3192067742" lon="14.3399812281"><name>WP 480</name></trkpt>
        <trkpt lat="49.3193408847" lon="14.3398417532"><name>WP 481</name></trkpt>
        <trkpt lat="49.3194568902" lon="14.3396888673"><name>WP 482</name></trkpt>
        <trkpt lat="49.3197512627" lon="14.3392315507"><name>WP 483</name></trkpt>
        <trkpt lat="49.3200717866" lon="14.3386079371"><name>WP 484</name></trkpt>
        <trkpt lat="49.3202226609" lon="14.3383437395"><name>WP 485</name></trkpt>
        <trkpt lat="49.3202763051" lon="14.338260591"><name>WP 486</name></trkpt>
        <trkpt lat="49.3203923106" lon="14.3380942941"><name>WP 487</name></trkpt>
        <trkpt lat="49.3205177039" lon="14.3379414082"><name>WP 488</name></trkpt>
        <trkpt lat="49.3208308518" lon="14.3376208842"><name>WP 489</name></trkpt>
        <trkpt lat="49.3208838254" lon="14.3375511467"><name>WP 490</name></trkpt>
        <trkpt lat="49.3209374696" lon="14.3374679983"><name>WP 491</name></trkpt>
        <trkpt lat="49.3209911138" lon="14.3373566866"><name>WP 492</name></trkpt>
        <trkpt lat="49.3210259825" lon="14.337233305"><name>WP 493</name></trkpt>
        <trkpt lat="49.321052134" lon="14.3370951712"><name>WP 494</name></trkpt>
        <trkpt lat="49.3210695684" lon="14.3369838595"><name>WP 495</name></trkpt>
        <trkpt lat="49.3210782856" lon="14.3368604779"><name>WP 496</name></trkpt>
        <trkpt lat="49.321077615" lon="14.3367370963"><name>WP 497</name></trkpt>
        <trkpt lat="49.321058169" lon="14.3365855515"><name>WP 498</name></trkpt>
        <trkpt lat="49.3210306764" lon="14.3364621699"><name>WP 499</name></trkpt>
        <trkpt lat="49.3210031837" lon="14.3363937736"><name>WP 500</name></trkpt>
        <trkpt lat="49.320948869" lon="14.336283803"><name>WP 501</name></trkpt>
        <trkpt lat="49.3208945543" lon="14.3362019956"><name>WP 502</name></trkpt>
        <trkpt lat="49.3208489567" lon="14.3361483514"><name>WP 503</name></trkpt>
        <trkpt lat="49.3207765371" lon="14.3360799551"><name>WP 504</name></trkpt>
        <trkpt lat="49.3206954002" lon="14.3360128999"><name>WP 505</name></trkpt>
        <trkpt lat="49.3206229806" lon="14.3359310925"><name>WP 506</name></trkpt>
        <trkpt lat="49.320550561" lon="14.3358492851"><name>WP 507</name></trkpt>
        <trkpt lat="49.3204868585" lon="14.3357674778"><name>WP 508</name></trkpt>
        <trkpt lat="49.320378229" lon="14.3355622888"><name>WP 509</name></trkpt>
        <trkpt lat="49.3203326315" lon="14.3354670703"><name>WP 510</name></trkpt>
        <trkpt lat="49.3202595413" lon="14.3352618814"><name>WP 511</name></trkpt>
        <trkpt lat="49.3202313781" lon="14.3351519108"><name>WP 512</name></trkpt>
        <trkpt lat="49.32018511" lon="14.3349051476"><name>WP 513</name></trkpt>
        <trkpt lat="49.3201663345" lon="14.334795177"><name>WP 514</name></trkpt>
        <trkpt lat="49.3201569468" lon="14.3346704543"><name>WP 515</name></trkpt>
        <trkpt lat="49.3201562762" lon="14.3345470726"><name>WP 516</name></trkpt>
        <trkpt lat="49.3201556057" lon="14.33441028"><name>WP 517</name></trkpt>
        <trkpt lat="49.3201629817" lon="14.3341621757"><name>WP 518</name></trkpt>
        <trkpt lat="49.3201965094" lon="14.3337625265"><name>WP 519</name></trkpt>
        <trkpt lat="49.3202923983" lon="14.3332113326"><name>WP 520</name></trkpt>
        <trkpt lat="49.3203011155" lon="14.3331415951"><name>WP 521</name></trkpt>
        <trkpt lat="49.3203534186" lon="14.3328653276"><name>WP 522</name></trkpt>
        <trkpt lat="49.3205378205" lon="14.3320646882"><name>WP 523</name></trkpt>
        <trkpt lat="49.3205995113" lon="14.3318299949"><name>WP 524</name></trkpt>
        <trkpt lat="49.3207249045" lon="14.3317736685"><name>WP 525</name></trkpt>
        <trkpt lat="49.3208965659" lon="14.3318541348"><name>WP 526</name></trkpt>
        <trkpt lat="49.3209951371" lon="14.3318943679"><name>WP 527</name></trkpt>
        <trkpt lat="49.3209951371" lon="14.3318943679"><name>WP 528</name></trkpt>
        <trkpt lat="49.3214457482" lon="14.3320392072"><name>WP 529</name></trkpt>
        <trkpt lat="49.322058633" lon="14.3322511017"><name>WP 530</name></trkpt>
        <trkpt lat="49.3226272613" lon="14.3324911594"><name>WP 531</name></trkpt>
        <trkpt lat="49.3229068816" lon="14.3326386809"><name>WP 532</name></trkpt>
        <trkpt lat="49.3229880184" lon="14.3326923251"><name>WP 533</name></trkpt>
        <trkpt lat="49.3231596798" lon="14.3328277767"><name>WP 534</name></trkpt>
        <trkpt lat="49.3236029148" lon="14.3332488835"><name>WP 535</name></trkpt>
        <trkpt lat="49.3241004646" lon="14.3337652087"><name>WP 536</name></trkpt>
        <trkpt lat="49.3244176358" lon="14.3341326714"><name>WP 537</name></trkpt>
        <trkpt lat="49.3246167898" lon="14.3344049156"><name>WP 538</name></trkpt>
        <trkpt lat="49.3247260898" lon="14.3345819414"><name>WP 539</name></trkpt>
        <trkpt lat="49.3250077218" lon="14.3351009488"><name>WP 540</name></trkpt>
        <trkpt lat="49.3253711611" lon="14.33577016"><name>WP 541</name></trkpt>
        <trkpt lat="49.3257620931" lon="14.3364259601"><name>WP 542</name></trkpt>
        <trkpt lat="49.3258801103" lon="14.3366445601"><name>WP 543</name></trkpt>
        <trkpt lat="49.3259806931" lon="14.3368765712"><name>WP 544</name></trkpt>
        <trkpt lat="49.3260718882" lon="14.3370817602"><name>WP 545</name></trkpt>
        <trkpt lat="49.3263635784" lon="14.3377523124"><name>WP 546</name></trkpt>
        <trkpt lat="49.3263541907" lon="14.3377523124"><name>WP 547</name></trkpt>
    </trkseg>
    </trk>
</gpx>